cv_order	meshsize	solver_time	tot_execution_time	n_cell	n_DOFs	L2error	H1error
1	1.839146e-01	1.345500e-01	1.059906e+00	1210	8412	2.841863e-02	1.552411e-01
1	9.716981e-02	2.324952e+00	9.267040e+00	8820	57422	8.610791e-03	7.780491e-02
1	6.591719e-02	1.274619e+01	3.717655e+01	28830	183032	4.471357e-03	5.161478e-02
1	4.985265e-02	4.100663e+01	9.621244e+01	67240	421242	2.714509e-03	3.858581e-02
