\begin{tikzpicture}
  \draw plot coordinates {(  0.08 ,  0.04 ) (  0.04 ,  0.08 ) (  0.00 ,  0.05 ) (  0.00 ,  0.00 ) (  0.05 ,  0.00 ) (  0.08 ,  0.04 )};
  \draw plot coordinates {(  0.19 ,  0.05 ) (  0.16 ,  0.10 ) (  0.08 ,  0.04 ) (  0.05 ,  0.00 ) (  0.10 ,  0.00 ) (  0.15 ,  0.00 ) (  0.19 ,  0.05 )};
  \draw plot coordinates {(  0.08 ,  0.04 ) (  0.16 ,  0.10 ) (  0.23 ,  0.19 ) (  0.19 ,  0.23 ) (  0.10 ,  0.16 ) (  0.04 ,  0.08 ) (  0.08 ,  0.04 )};
  \draw plot coordinates {(  0.04 ,  0.08 ) (  0.10 ,  0.16 ) (  0.05 ,  0.19 ) (  0.00 ,  0.15 ) (  0.00 ,  0.10 ) (  0.00 ,  0.05 ) (  0.04 ,  0.08 )};
  \draw plot coordinates {(  0.29 ,  0.05 ) (  0.27 ,  0.10 ) (  0.19 ,  0.05 ) (  0.15 ,  0.00 ) (  0.20 ,  0.00 ) (  0.25 ,  0.00 ) (  0.29 ,  0.05 )};
  \draw plot coordinates {(  0.16 ,  0.10 ) (  0.19 ,  0.05 ) (  0.27 ,  0.10 ) (  0.33 ,  0.20 ) (  0.31 ,  0.25 ) (  0.23 ,  0.19 ) (  0.16 ,  0.10 )};
  \draw plot coordinates {(  0.23 ,  0.19 ) (  0.31 ,  0.25 ) (  0.36 ,  0.32 ) (  0.32 ,  0.36 ) (  0.25 ,  0.31 ) (  0.19 ,  0.23 ) (  0.23 ,  0.19 )};
  \draw plot coordinates {(  0.10 ,  0.16 ) (  0.19 ,  0.23 ) (  0.25 ,  0.31 ) (  0.20 ,  0.33 ) (  0.10 ,  0.27 ) (  0.05 ,  0.19 ) (  0.10 ,  0.16 )};
  \draw plot coordinates {(  0.05 ,  0.19 ) (  0.10 ,  0.27 ) (  0.05 ,  0.29 ) (  0.00 ,  0.25 ) (  0.00 ,  0.20 ) (  0.00 ,  0.15 ) (  0.05 ,  0.19 )};
  \draw plot coordinates {(  0.38 ,  0.04 ) (  0.36 ,  0.10 ) (  0.29 ,  0.05 ) (  0.25 ,  0.00 ) (  0.30 ,  0.00 ) (  0.35 ,  0.00 ) (  0.38 ,  0.04 )};
  \draw plot coordinates {(  0.27 ,  0.10 ) (  0.29 ,  0.05 ) (  0.36 ,  0.10 ) (  0.42 ,  0.18 ) (  0.40 ,  0.23 ) (  0.33 ,  0.20 ) (  0.27 ,  0.10 )};
  \draw plot coordinates {(  0.31 ,  0.25 ) (  0.33 ,  0.20 ) (  0.40 ,  0.23 ) (  0.43 ,  0.30 ) (  0.41 ,  0.35 ) (  0.36 ,  0.32 ) (  0.31 ,  0.25 )};
  \draw plot coordinates {(  0.36 ,  0.32 ) (  0.41 ,  0.35 ) (  0.43 ,  0.39 ) (  0.39 ,  0.43 ) (  0.35 ,  0.41 ) (  0.32 ,  0.36 ) (  0.36 ,  0.32 )};
  \draw plot coordinates {(  0.25 ,  0.31 ) (  0.32 ,  0.36 ) (  0.35 ,  0.41 ) (  0.30 ,  0.43 ) (  0.23 ,  0.40 ) (  0.20 ,  0.33 ) (  0.25 ,  0.31 )};
  \draw plot coordinates {(  0.10 ,  0.27 ) (  0.20 ,  0.33 ) (  0.23 ,  0.40 ) (  0.18 ,  0.42 ) (  0.10 ,  0.36 ) (  0.05 ,  0.29 ) (  0.10 ,  0.27 )};
  \draw plot coordinates {(  0.05 ,  0.29 ) (  0.10 ,  0.36 ) (  0.04 ,  0.38 ) (  0.00 ,  0.35 ) (  0.00 ,  0.30 ) (  0.00 ,  0.25 ) (  0.05 ,  0.29 )};
  \draw plot coordinates {(  0.47 ,  0.03 ) (  0.44 ,  0.08 ) (  0.38 ,  0.04 ) (  0.35 ,  0.00 ) (  0.40 ,  0.00 ) (  0.45 ,  0.00 ) (  0.47 ,  0.03 )};
  \draw plot coordinates {(  0.36 ,  0.10 ) (  0.38 ,  0.04 ) (  0.44 ,  0.08 ) (  0.48 ,  0.14 ) (  0.46 ,  0.20 ) (  0.42 ,  0.18 ) (  0.36 ,  0.10 )};
  \draw plot coordinates {(  0.40 ,  0.23 ) (  0.42 ,  0.18 ) (  0.46 ,  0.20 ) (  0.49 ,  0.25 ) (  0.47 ,  0.30 ) (  0.43 ,  0.30 ) (  0.40 ,  0.23 )};
  \draw plot coordinates {(  0.41 ,  0.35 ) (  0.43 ,  0.30 ) (  0.47 ,  0.30 ) (  0.49 ,  0.35 ) (  0.46 ,  0.40 ) (  0.43 ,  0.39 ) (  0.41 ,  0.35 )};
  \draw plot coordinates {(  0.43 ,  0.39 ) (  0.46 ,  0.40 ) (  0.48 ,  0.44 ) (  0.44 ,  0.48 ) (  0.40 ,  0.46 ) (  0.39 ,  0.43 ) (  0.43 ,  0.39 )};
  \draw plot coordinates {(  0.35 ,  0.41 ) (  0.39 ,  0.43 ) (  0.40 ,  0.46 ) (  0.35 ,  0.49 ) (  0.30 ,  0.47 ) (  0.30 ,  0.43 ) (  0.35 ,  0.41 )};
  \draw plot coordinates {(  0.23 ,  0.40 ) (  0.30 ,  0.43 ) (  0.30 ,  0.47 ) (  0.25 ,  0.49 ) (  0.20 ,  0.46 ) (  0.18 ,  0.42 ) (  0.23 ,  0.40 )};
  \draw plot coordinates {(  0.10 ,  0.36 ) (  0.18 ,  0.42 ) (  0.20 ,  0.46 ) (  0.14 ,  0.48 ) (  0.08 ,  0.44 ) (  0.04 ,  0.38 ) (  0.10 ,  0.36 )};
  \draw plot coordinates {(  0.04 ,  0.38 ) (  0.08 ,  0.44 ) (  0.03 ,  0.47 ) (  0.00 ,  0.45 ) (  0.00 ,  0.40 ) (  0.00 ,  0.35 ) (  0.04 ,  0.38 )};
  \draw plot coordinates {(  0.56 ,  0.02 ) (  0.52 ,  0.06 ) (  0.47 ,  0.03 ) (  0.45 ,  0.00 ) (  0.50 ,  0.00 ) (  0.55 ,  0.00 ) (  0.56 ,  0.02 )};
  \draw plot coordinates {(  0.44 ,  0.08 ) (  0.47 ,  0.03 ) (  0.52 ,  0.06 ) (  0.54 ,  0.10 ) (  0.51 ,  0.15 ) (  0.48 ,  0.14 ) (  0.44 ,  0.08 )};
  \draw plot coordinates {(  0.46 ,  0.20 ) (  0.48 ,  0.14 ) (  0.51 ,  0.15 ) (  0.53 ,  0.20 ) (  0.51 ,  0.25 ) (  0.49 ,  0.25 ) (  0.46 ,  0.20 )};
  \draw plot coordinates {(  0.47 ,  0.30 ) (  0.49 ,  0.25 ) (  0.51 ,  0.25 ) (  0.54 ,  0.30 ) (  0.52 ,  0.36 ) (  0.49 ,  0.35 ) (  0.47 ,  0.30 )};
  \draw plot coordinates {(  0.46 ,  0.40 ) (  0.49 ,  0.35 ) (  0.52 ,  0.36 ) (  0.56 ,  0.42 ) (  0.53 ,  0.47 ) (  0.48 ,  0.44 ) (  0.46 ,  0.40 )};
  \draw plot coordinates {(  0.48 ,  0.44 ) (  0.53 ,  0.47 ) (  0.58 ,  0.54 ) (  0.54 ,  0.58 ) (  0.47 ,  0.53 ) (  0.44 ,  0.48 ) (  0.48 ,  0.44 )};
  \draw plot coordinates {(  0.40 ,  0.46 ) (  0.44 ,  0.48 ) (  0.47 ,  0.53 ) (  0.42 ,  0.56 ) (  0.36 ,  0.52 ) (  0.35 ,  0.49 ) (  0.40 ,  0.46 )};
  \draw plot coordinates {(  0.30 ,  0.47 ) (  0.35 ,  0.49 ) (  0.36 ,  0.52 ) (  0.30 ,  0.54 ) (  0.25 ,  0.51 ) (  0.25 ,  0.49 ) (  0.30 ,  0.47 )};
  \draw plot coordinates {(  0.20 ,  0.46 ) (  0.25 ,  0.49 ) (  0.25 ,  0.51 ) (  0.20 ,  0.53 ) (  0.15 ,  0.51 ) (  0.14 ,  0.48 ) (  0.20 ,  0.46 )};
  \draw plot coordinates {(  0.08 ,  0.44 ) (  0.14 ,  0.48 ) (  0.15 ,  0.51 ) (  0.10 ,  0.54 ) (  0.06 ,  0.52 ) (  0.03 ,  0.47 ) (  0.08 ,  0.44 )};
  \draw plot coordinates {(  0.03 ,  0.47 ) (  0.06 ,  0.52 ) (  0.02 ,  0.56 ) (  0.00 ,  0.55 ) (  0.00 ,  0.50 ) (  0.00 ,  0.45 ) (  0.03 ,  0.47 )};
  \draw plot coordinates {(  0.65 ,  0.01 ) (  0.60 ,  0.04 ) (  0.56 ,  0.02 ) (  0.55 ,  0.00 ) (  0.60 ,  0.00 ) (  0.65 ,  0.00 ) (  0.65 ,  0.01 )};
  \draw plot coordinates {(  0.52 ,  0.06 ) (  0.56 ,  0.02 ) (  0.60 ,  0.04 ) (  0.61 ,  0.07 ) (  0.57 ,  0.11 ) (  0.54 ,  0.10 ) (  0.52 ,  0.06 )};
  \draw plot coordinates {(  0.51 ,  0.15 ) (  0.54 ,  0.10 ) (  0.57 ,  0.11 ) (  0.59 ,  0.15 ) (  0.57 ,  0.20 ) (  0.53 ,  0.20 ) (  0.51 ,  0.15 )};
  \draw plot coordinates {(  0.51 ,  0.25 ) (  0.53 ,  0.20 ) (  0.57 ,  0.20 ) (  0.60 ,  0.27 ) (  0.58 ,  0.32 ) (  0.54 ,  0.30 ) (  0.51 ,  0.25 )};
  \draw plot coordinates {(  0.52 ,  0.36 ) (  0.54 ,  0.30 ) (  0.58 ,  0.32 ) (  0.64 ,  0.40 ) (  0.62 ,  0.46 ) (  0.56 ,  0.42 ) (  0.52 ,  0.36 )};
  \draw plot coordinates {(  0.53 ,  0.47 ) (  0.56 ,  0.42 ) (  0.62 ,  0.46 ) (  0.69 ,  0.55 ) (  0.66 ,  0.60 ) (  0.58 ,  0.54 ) (  0.53 ,  0.47 )};
  \draw plot coordinates {(  0.58 ,  0.54 ) (  0.66 ,  0.60 ) (  0.73 ,  0.69 ) (  0.69 ,  0.73 ) (  0.60 ,  0.66 ) (  0.54 ,  0.58 ) (  0.58 ,  0.54 )};
  \draw plot coordinates {(  0.47 ,  0.53 ) (  0.54 ,  0.58 ) (  0.60 ,  0.66 ) (  0.55 ,  0.69 ) (  0.46 ,  0.62 ) (  0.42 ,  0.56 ) (  0.47 ,  0.53 )};
  \draw plot coordinates {(  0.36 ,  0.52 ) (  0.42 ,  0.56 ) (  0.46 ,  0.62 ) (  0.40 ,  0.64 ) (  0.32 ,  0.58 ) (  0.30 ,  0.54 ) (  0.36 ,  0.52 )};
  \draw plot coordinates {(  0.25 ,  0.51 ) (  0.30 ,  0.54 ) (  0.32 ,  0.58 ) (  0.27 ,  0.60 ) (  0.20 ,  0.57 ) (  0.20 ,  0.53 ) (  0.25 ,  0.51 )};
  \draw plot coordinates {(  0.15 ,  0.51 ) (  0.20 ,  0.53 ) (  0.20 ,  0.57 ) (  0.15 ,  0.59 ) (  0.11 ,  0.57 ) (  0.10 ,  0.54 ) (  0.15 ,  0.51 )};
  \draw plot coordinates {(  0.06 ,  0.52 ) (  0.10 ,  0.54 ) (  0.11 ,  0.57 ) (  0.07 ,  0.61 ) (  0.04 ,  0.60 ) (  0.02 ,  0.56 ) (  0.06 ,  0.52 )};
  \draw plot coordinates {(  0.02 ,  0.56 ) (  0.04 ,  0.60 ) (  0.01 ,  0.65 ) (  0.00 ,  0.65 ) (  0.00 ,  0.60 ) (  0.00 ,  0.55 ) (  0.02 ,  0.56 )};
  \draw plot coordinates {(  0.75 ,  0.01 ) (  0.70 ,  0.03 ) (  0.65 ,  0.01 ) (  0.65 ,  0.00 ) (  0.70 ,  0.00 ) (  0.75 ,  0.00 ) (  0.75 ,  0.01 )};
  \draw plot coordinates {(  0.60 ,  0.04 ) (  0.65 ,  0.01 ) (  0.70 ,  0.03 ) (  0.70 ,  0.07 ) (  0.65 ,  0.09 ) (  0.61 ,  0.07 ) (  0.60 ,  0.04 )};
  \draw plot coordinates {(  0.57 ,  0.11 ) (  0.61 ,  0.07 ) (  0.65 ,  0.09 ) (  0.68 ,  0.14 ) (  0.64 ,  0.18 ) (  0.59 ,  0.15 ) (  0.57 ,  0.11 )};
  \draw plot coordinates {(  0.57 ,  0.20 ) (  0.59 ,  0.15 ) (  0.64 ,  0.18 ) (  0.69 ,  0.25 ) (  0.67 ,  0.30 ) (  0.60 ,  0.27 ) (  0.57 ,  0.20 )};
  \draw plot coordinates {(  0.58 ,  0.32 ) (  0.60 ,  0.27 ) (  0.67 ,  0.30 ) (  0.73 ,  0.40 ) (  0.71 ,  0.45 ) (  0.64 ,  0.40 ) (  0.58 ,  0.32 )};
  \draw plot coordinates {(  0.62 ,  0.46 ) (  0.64 ,  0.40 ) (  0.71 ,  0.45 ) (  0.79 ,  0.55 ) (  0.77 ,  0.60 ) (  0.69 ,  0.55 ) (  0.62 ,  0.46 )};
  \draw plot coordinates {(  0.66 ,  0.60 ) (  0.69 ,  0.55 ) (  0.77 ,  0.60 ) (  0.83 ,  0.70 ) (  0.81 ,  0.75 ) (  0.73 ,  0.69 ) (  0.66 ,  0.60 )};
  \draw plot coordinates {(  0.73 ,  0.69 ) (  0.81 ,  0.75 ) (  0.86 ,  0.82 ) (  0.82 ,  0.86 ) (  0.75 ,  0.81 ) (  0.69 ,  0.73 ) (  0.73 ,  0.69 )};
  \draw plot coordinates {(  0.60 ,  0.66 ) (  0.69 ,  0.73 ) (  0.75 ,  0.81 ) (  0.70 ,  0.83 ) (  0.60 ,  0.77 ) (  0.55 ,  0.69 ) (  0.60 ,  0.66 )};
  \draw plot coordinates {(  0.46 ,  0.62 ) (  0.55 ,  0.69 ) (  0.60 ,  0.77 ) (  0.55 ,  0.79 ) (  0.45 ,  0.71 ) (  0.40 ,  0.64 ) (  0.46 ,  0.62 )};
  \draw plot coordinates {(  0.32 ,  0.58 ) (  0.40 ,  0.64 ) (  0.45 ,  0.71 ) (  0.40 ,  0.73 ) (  0.30 ,  0.67 ) (  0.27 ,  0.60 ) (  0.32 ,  0.58 )};
  \draw plot coordinates {(  0.20 ,  0.57 ) (  0.27 ,  0.60 ) (  0.30 ,  0.67 ) (  0.25 ,  0.69 ) (  0.18 ,  0.64 ) (  0.15 ,  0.59 ) (  0.20 ,  0.57 )};
  \draw plot coordinates {(  0.11 ,  0.57 ) (  0.15 ,  0.59 ) (  0.18 ,  0.64 ) (  0.14 ,  0.68 ) (  0.09 ,  0.65 ) (  0.07 ,  0.61 ) (  0.11 ,  0.57 )};
  \draw plot coordinates {(  0.04 ,  0.60 ) (  0.07 ,  0.61 ) (  0.09 ,  0.65 ) (  0.07 ,  0.70 ) (  0.03 ,  0.70 ) (  0.01 ,  0.65 ) (  0.04 ,  0.60 )};
  \draw plot coordinates {(  0.01 ,  0.65 ) (  0.03 ,  0.70 ) (  0.01 ,  0.75 ) (  0.00 ,  0.75 ) (  0.00 ,  0.70 ) (  0.00 ,  0.65 ) (  0.01 ,  0.65 )};
  \draw plot coordinates {(  0.86 ,  0.02 ) (  0.80 ,  0.04 ) (  0.75 ,  0.01 ) (  0.75 ,  0.00 ) (  0.80 ,  0.00 ) (  0.85 ,  0.00 ) (  0.86 ,  0.02 )};
  \draw plot coordinates {(  0.70 ,  0.03 ) (  0.75 ,  0.01 ) (  0.80 ,  0.04 ) (  0.82 ,  0.08 ) (  0.77 ,  0.10 ) (  0.70 ,  0.07 ) (  0.70 ,  0.03 )};
  \draw plot coordinates {(  0.65 ,  0.09 ) (  0.70 ,  0.07 ) (  0.77 ,  0.10 ) (  0.80 ,  0.17 ) (  0.75 ,  0.19 ) (  0.68 ,  0.14 ) (  0.65 ,  0.09 )};
  \draw plot coordinates {(  0.64 ,  0.18 ) (  0.68 ,  0.14 ) (  0.75 ,  0.19 ) (  0.81 ,  0.27 ) (  0.77 ,  0.31 ) (  0.69 ,  0.25 ) (  0.64 ,  0.18 )};
  \draw plot coordinates {(  0.67 ,  0.30 ) (  0.69 ,  0.25 ) (  0.77 ,  0.31 ) (  0.84 ,  0.40 ) (  0.81 ,  0.45 ) (  0.73 ,  0.40 ) (  0.67 ,  0.30 )};
  \draw plot coordinates {(  0.71 ,  0.45 ) (  0.73 ,  0.40 ) (  0.81 ,  0.45 ) (  0.88 ,  0.54 ) (  0.86 ,  0.60 ) (  0.79 ,  0.55 ) (  0.71 ,  0.45 )};
  \draw plot coordinates {(  0.77 ,  0.60 ) (  0.79 ,  0.55 ) (  0.86 ,  0.60 ) (  0.92 ,  0.68 ) (  0.90 ,  0.73 ) (  0.83 ,  0.70 ) (  0.77 ,  0.60 )};
  \draw plot coordinates {(  0.81 ,  0.75 ) (  0.83 ,  0.70 ) (  0.90 ,  0.73 ) (  0.93 ,  0.80 ) (  0.91 ,  0.85 ) (  0.86 ,  0.82 ) (  0.81 ,  0.75 )};
  \draw plot coordinates {(  0.86 ,  0.82 ) (  0.91 ,  0.85 ) (  0.93 ,  0.89 ) (  0.89 ,  0.93 ) (  0.85 ,  0.91 ) (  0.82 ,  0.86 ) (  0.86 ,  0.82 )};
  \draw plot coordinates {(  0.75 ,  0.81 ) (  0.82 ,  0.86 ) (  0.85 ,  0.91 ) (  0.80 ,  0.93 ) (  0.73 ,  0.90 ) (  0.70 ,  0.83 ) (  0.75 ,  0.81 )};
  \draw plot coordinates {(  0.60 ,  0.77 ) (  0.70 ,  0.83 ) (  0.73 ,  0.90 ) (  0.68 ,  0.92 ) (  0.60 ,  0.86 ) (  0.55 ,  0.79 ) (  0.60 ,  0.77 )};
  \draw plot coordinates {(  0.45 ,  0.71 ) (  0.55 ,  0.79 ) (  0.60 ,  0.86 ) (  0.54 ,  0.88 ) (  0.45 ,  0.81 ) (  0.40 ,  0.73 ) (  0.45 ,  0.71 )};
  \draw plot coordinates {(  0.30 ,  0.67 ) (  0.40 ,  0.73 ) (  0.45 ,  0.81 ) (  0.40 ,  0.84 ) (  0.31 ,  0.77 ) (  0.25 ,  0.69 ) (  0.30 ,  0.67 )};
  \draw plot coordinates {(  0.18 ,  0.64 ) (  0.25 ,  0.69 ) (  0.31 ,  0.77 ) (  0.27 ,  0.81 ) (  0.19 ,  0.75 ) (  0.14 ,  0.68 ) (  0.18 ,  0.64 )};
  \draw plot coordinates {(  0.09 ,  0.65 ) (  0.14 ,  0.68 ) (  0.19 ,  0.75 ) (  0.17 ,  0.80 ) (  0.10 ,  0.77 ) (  0.07 ,  0.70 ) (  0.09 ,  0.65 )};
  \draw plot coordinates {(  0.03 ,  0.70 ) (  0.07 ,  0.70 ) (  0.10 ,  0.77 ) (  0.08 ,  0.82 ) (  0.04 ,  0.80 ) (  0.01 ,  0.75 ) (  0.03 ,  0.70 )};
  \draw plot coordinates {(  0.01 ,  0.75 ) (  0.04 ,  0.80 ) (  0.02 ,  0.86 ) (  0.00 ,  0.85 ) (  0.00 ,  0.80 ) (  0.00 ,  0.75 ) (  0.01 ,  0.75 )};
  \draw plot coordinates {(  0.97 ,  0.03 ) (  0.92 ,  0.06 ) (  0.86 ,  0.02 ) (  0.85 ,  0.00 ) (  0.90 ,  0.00 ) (  0.95 ,  0.00 ) (  0.97 ,  0.03 )};
  \draw plot coordinates {(  0.80 ,  0.04 ) (  0.86 ,  0.02 ) (  0.92 ,  0.06 ) (  0.96 ,  0.12 ) (  0.90 ,  0.14 ) (  0.82 ,  0.08 ) (  0.80 ,  0.04 )};
  \draw plot coordinates {(  0.77 ,  0.10 ) (  0.82 ,  0.08 ) (  0.90 ,  0.14 ) (  0.95 ,  0.21 ) (  0.90 ,  0.23 ) (  0.80 ,  0.17 ) (  0.77 ,  0.10 )};
  \draw plot coordinates {(  0.75 ,  0.19 ) (  0.80 ,  0.17 ) (  0.90 ,  0.23 ) (  0.95 ,  0.31 ) (  0.90 ,  0.34 ) (  0.81 ,  0.27 ) (  0.75 ,  0.19 )};
  \draw plot coordinates {(  0.77 ,  0.31 ) (  0.81 ,  0.27 ) (  0.90 ,  0.34 ) (  0.96 ,  0.42 ) (  0.92 ,  0.46 ) (  0.84 ,  0.40 ) (  0.77 ,  0.31 )};
  \draw plot coordinates {(  0.81 ,  0.45 ) (  0.84 ,  0.40 ) (  0.92 ,  0.46 ) (  0.97 ,  0.53 ) (  0.94 ,  0.58 ) (  0.88 ,  0.54 ) (  0.81 ,  0.45 )};
  \draw plot coordinates {(  0.86 ,  0.60 ) (  0.88 ,  0.54 ) (  0.94 ,  0.58 ) (  0.98 ,  0.64 ) (  0.96 ,  0.70 ) (  0.92 ,  0.68 ) (  0.86 ,  0.60 )};
  \draw plot coordinates {(  0.90 ,  0.73 ) (  0.92 ,  0.68 ) (  0.96 ,  0.70 ) (  0.99 ,  0.75 ) (  0.97 ,  0.80 ) (  0.93 ,  0.80 ) (  0.90 ,  0.73 )};
  \draw plot coordinates {(  0.91 ,  0.85 ) (  0.93 ,  0.80 ) (  0.97 ,  0.80 ) (  0.99 ,  0.85 ) (  0.96 ,  0.90 ) (  0.93 ,  0.89 ) (  0.91 ,  0.85 )};
  \draw plot coordinates {(  0.93 ,  0.89 ) (  0.96 ,  0.90 ) (  0.98 ,  0.94 ) (  0.94 ,  0.98 ) (  0.90 ,  0.96 ) (  0.89 ,  0.93 ) (  0.93 ,  0.89 )};
  \draw plot coordinates {(  0.85 ,  0.91 ) (  0.89 ,  0.93 ) (  0.90 ,  0.96 ) (  0.85 ,  0.99 ) (  0.80 ,  0.97 ) (  0.80 ,  0.93 ) (  0.85 ,  0.91 )};
  \draw plot coordinates {(  0.73 ,  0.90 ) (  0.80 ,  0.93 ) (  0.80 ,  0.97 ) (  0.75 ,  0.99 ) (  0.70 ,  0.96 ) (  0.68 ,  0.92 ) (  0.73 ,  0.90 )};
  \draw plot coordinates {(  0.60 ,  0.86 ) (  0.68 ,  0.92 ) (  0.70 ,  0.96 ) (  0.64 ,  0.98 ) (  0.58 ,  0.94 ) (  0.54 ,  0.88 ) (  0.60 ,  0.86 )};
  \draw plot coordinates {(  0.45 ,  0.81 ) (  0.54 ,  0.88 ) (  0.58 ,  0.94 ) (  0.53 ,  0.97 ) (  0.46 ,  0.92 ) (  0.40 ,  0.84 ) (  0.45 ,  0.81 )};
  \draw plot coordinates {(  0.31 ,  0.77 ) (  0.40 ,  0.84 ) (  0.46 ,  0.92 ) (  0.42 ,  0.96 ) (  0.34 ,  0.90 ) (  0.27 ,  0.81 ) (  0.31 ,  0.77 )};
  \draw plot coordinates {(  0.19 ,  0.75 ) (  0.27 ,  0.81 ) (  0.34 ,  0.90 ) (  0.31 ,  0.95 ) (  0.23 ,  0.90 ) (  0.17 ,  0.80 ) (  0.19 ,  0.75 )};
  \draw plot coordinates {(  0.10 ,  0.77 ) (  0.17 ,  0.80 ) (  0.23 ,  0.90 ) (  0.21 ,  0.95 ) (  0.14 ,  0.90 ) (  0.08 ,  0.82 ) (  0.10 ,  0.77 )};
  \draw plot coordinates {(  0.04 ,  0.80 ) (  0.08 ,  0.82 ) (  0.14 ,  0.90 ) (  0.12 ,  0.96 ) (  0.06 ,  0.92 ) (  0.02 ,  0.86 ) (  0.04 ,  0.80 )};
  \draw plot coordinates {(  0.02 ,  0.86 ) (  0.06 ,  0.92 ) (  0.03 ,  0.97 ) (  0.00 ,  0.95 ) (  0.00 ,  0.90 ) (  0.00 ,  0.85 ) (  0.02 ,  0.86 )};
  \draw plot coordinates {(  0.97 ,  0.03 ) (  0.95 ,  0.00 ) (  1.00 ,  0.00 ) (  1.00 ,  0.05 ) (  0.97 ,  0.03 )};
  \draw plot coordinates {(  0.96 ,  0.12 ) (  0.92 ,  0.06 ) (  0.97 ,  0.03 ) (  1.00 ,  0.05 ) (  1.00 ,  0.10 ) (  1.00 ,  0.15 ) (  0.96 ,  0.12 )};
  \draw plot coordinates {(  0.95 ,  0.21 ) (  0.90 ,  0.14 ) (  0.96 ,  0.12 ) (  1.00 ,  0.15 ) (  1.00 ,  0.20 ) (  1.00 ,  0.25 ) (  0.95 ,  0.21 )};
  \draw plot coordinates {(  0.95 ,  0.31 ) (  0.90 ,  0.23 ) (  0.95 ,  0.21 ) (  1.00 ,  0.25 ) (  1.00 ,  0.30 ) (  1.00 ,  0.35 ) (  0.95 ,  0.31 )};
  \draw plot coordinates {(  0.96 ,  0.42 ) (  0.90 ,  0.34 ) (  0.95 ,  0.31 ) (  1.00 ,  0.35 ) (  1.00 ,  0.40 ) (  1.00 ,  0.45 ) (  0.96 ,  0.42 )};
  \draw plot coordinates {(  0.97 ,  0.53 ) (  0.92 ,  0.46 ) (  0.96 ,  0.42 ) (  1.00 ,  0.45 ) (  1.00 ,  0.50 ) (  1.00 ,  0.55 ) (  0.97 ,  0.53 )};
  \draw plot coordinates {(  0.98 ,  0.64 ) (  0.94 ,  0.58 ) (  0.97 ,  0.53 ) (  1.00 ,  0.55 ) (  1.00 ,  0.60 ) (  1.00 ,  0.65 ) (  0.98 ,  0.64 )};
  \draw plot coordinates {(  0.99 ,  0.75 ) (  0.96 ,  0.70 ) (  0.98 ,  0.64 ) (  1.00 ,  0.65 ) (  1.00 ,  0.70 ) (  1.00 ,  0.75 ) (  0.99 ,  0.75 )};
  \draw plot coordinates {(  0.99 ,  0.85 ) (  0.97 ,  0.80 ) (  0.99 ,  0.75 ) (  1.00 ,  0.75 ) (  1.00 ,  0.80 ) (  1.00 ,  0.85 ) (  0.99 ,  0.85 )};
  \draw plot coordinates {(  0.98 ,  0.94 ) (  0.96 ,  0.90 ) (  0.99 ,  0.85 ) (  1.00 ,  0.85 ) (  1.00 ,  0.90 ) (  1.00 ,  0.95 ) (  0.98 ,  0.94 )};
  \draw plot coordinates {(  0.94 ,  0.98 ) (  0.98 ,  0.94 ) (  1.00 ,  0.95 ) (  1.00 ,  1.00 ) (  0.95 ,  1.00 ) (  0.94 ,  0.98 )};
  \draw plot coordinates {(  0.85 ,  0.99 ) (  0.90 ,  0.96 ) (  0.94 ,  0.98 ) (  0.95 ,  1.00 ) (  0.90 ,  1.00 ) (  0.85 ,  1.00 ) (  0.85 ,  0.99 )};
  \draw plot coordinates {(  0.75 ,  0.99 ) (  0.80 ,  0.97 ) (  0.85 ,  0.99 ) (  0.85 ,  1.00 ) (  0.80 ,  1.00 ) (  0.75 ,  1.00 ) (  0.75 ,  0.99 )};
  \draw plot coordinates {(  0.64 ,  0.98 ) (  0.70 ,  0.96 ) (  0.75 ,  0.99 ) (  0.75 ,  1.00 ) (  0.70 ,  1.00 ) (  0.65 ,  1.00 ) (  0.64 ,  0.98 )};
  \draw plot coordinates {(  0.53 ,  0.97 ) (  0.58 ,  0.94 ) (  0.64 ,  0.98 ) (  0.65 ,  1.00 ) (  0.60 ,  1.00 ) (  0.55 ,  1.00 ) (  0.53 ,  0.97 )};
  \draw plot coordinates {(  0.42 ,  0.96 ) (  0.46 ,  0.92 ) (  0.53 ,  0.97 ) (  0.55 ,  1.00 ) (  0.50 ,  1.00 ) (  0.45 ,  1.00 ) (  0.42 ,  0.96 )};
  \draw plot coordinates {(  0.31 ,  0.95 ) (  0.34 ,  0.90 ) (  0.42 ,  0.96 ) (  0.45 ,  1.00 ) (  0.40 ,  1.00 ) (  0.35 ,  1.00 ) (  0.31 ,  0.95 )};
  \draw plot coordinates {(  0.21 ,  0.95 ) (  0.23 ,  0.90 ) (  0.31 ,  0.95 ) (  0.35 ,  1.00 ) (  0.30 ,  1.00 ) (  0.25 ,  1.00 ) (  0.21 ,  0.95 )};
  \draw plot coordinates {(  0.12 ,  0.96 ) (  0.14 ,  0.90 ) (  0.21 ,  0.95 ) (  0.25 ,  1.00 ) (  0.20 ,  1.00 ) (  0.15 ,  1.00 ) (  0.12 ,  0.96 )};
  \draw plot coordinates {(  0.03 ,  0.97 ) (  0.06 ,  0.92 ) (  0.12 ,  0.96 ) (  0.15 ,  1.00 ) (  0.10 ,  1.00 ) (  0.05 ,  1.00 ) (  0.03 ,  0.97 )};
  \draw plot coordinates {(  0.03 ,  0.97 ) (  0.05 ,  1.00 ) (  0.00 ,  1.00 ) (  0.00 ,  0.95 ) (  0.03 ,  0.97 )};
\end{tikzpicture}
